{
  "version": "v4",
  "repo": "borisyankov/DefinitelyTyped",
  "ref": "master",
  "path": "tools/typings",
  "bundle": "tools/typings/tsd.d.ts",
  "installed": {
    "angularjs/angular.d.ts": {
      "commit": "f6c8ca47193fb67947944a3170912672ac3e908e"
    },
    "jquery/jquery.d.ts": {
      "commit": "f6c8ca47193fb67947944a3170912672ac3e908e"
    },
    "lodash/lodash.d.ts": {
      "commit": "f6c8ca47193fb67947944a3170912672ac3e908e"
    },
    "moment/moment.d.ts": {
      "commit": "f6c8ca47193fb67947944a3170912672ac3e908e"
    },
    "moment/moment-node.d.ts": {
      "commit": "f6c8ca47193fb67947944a3170912672ac3e908e"
    },
    "marked/marked.d.ts": {
      "commit": "f6c8ca47193fb67947944a3170912672ac3e908e"
    },
    "angularjs/angular-cookies.d.ts": {
      "commit": "f6c8ca47193fb67947944a3170912672ac3e908e"
    }
  }
}
